…
Merging the datasets

``` r
# checking for discrepancy 

anti_join(bakers_df, bakes_df, by = join_by(bakers))
```

    ## # A tibble: 23 × 5
    ##    bakers series baker_age baker_occupation               hometown     
    ##    <chr>   <dbl>     <dbl> <chr>                          <chr>        
    ##  1 Alice      10        28 Geography teacher              Essex        
    ##  2 Amelia     10        24 Fashion designer               Halifax      
    ##  3 Antony      9        30 Banker                         London       
    ##  4 Briony      9        33 Full-time parent               Bristol      
    ##  5 Dan         9        36 Full-time parent               London       
    ##  6 Dan        10        32 Support worker                 Rotherham    
    ##  7 Helena     10        40 Online project manager         Leeds        
    ##  8 Henry      10        20 Student                        Durham       
    ##  9 Imelda      9        33 Countryside recreation officer County Tyrone
    ## 10 Jamie      10        20 Part-time waiter               Surrey       
    ## # ℹ 13 more rows
…
